%YAML 1.1
%TAG !u! tag:unity3d.com,2011:
--- !u!114 &11400000
MonoBehaviour:
  m_ObjectHideFlags: 0
  m_CorrespondingSourceObject: {fileID: 0}
  m_PrefabInstance: {fileID: 0}
  m_PrefabAsset: {fileID: 0}
  m_GameObject: {fileID: 0}
  m_Enabled: 1
  m_EditorHideFlags: 0
  m_Script: {fileID: 11500000, guid: b8c32fffdea2713448f1facf610a8cae, type: 3}
  m_Name: Edrick
  m_EditorClassIdentifier: 
  id: Edrick
  nombre: Edrick
  sprite: {fileID: 21300000, guid: bc9c00105b3a2614db7ee98cd0aaf7a9, type: 3}
  hp: 250
  hpMax: 250
  mp: 40
  mpMax: 40
  energy: 40
  maxEnergy: 40
  atk: 5
  def: 5
  magicAtk: 5
  magicDef: 5
  agility: 5
  evasion: 5
  accuracy: 5
  luck: 5
  exp: 0
  affinities: []
  skills: []
  animatorCombate: {fileID: 9100000, guid: 1414fe4bf05ba004e8b086187d5b8e76, type: 2}
  lvl: 1
  clase: Mestizo
  tipoClase: 2
  neck: {fileID: 0}
  weapon: {fileID: 0}
  ring: {fileID: 0}
  helmet: {fileID: 0}
  armor: {fileID: 0}
  legs: {fileID: 0}
  boots: {fileID: 0}
  coat: {fileID: 0}
  shield: {fileID: 0}
  light: {fileID: 0}
  expToNextLvl: 1000
  lvlPoints: 0
  levelReward:
    hp: 0
    mp: 0
    ep: 0
    atk: 0
    def: 0
    mAt: 0
    mDf: 0
    agl: 0
    eva: 0
    acc: 0
    lck: 0
