%YAML 1.1
%TAG !u! tag:unity3d.com,2011:
--- !u!114 &11400000
MonoBehaviour:
  m_ObjectHideFlags: 0
  m_CorrespondingSourceObject: {fileID: 0}
  m_PrefabInstance: {fileID: 0}
  m_PrefabAsset: {fileID: 0}
  m_GameObject: {fileID: 0}
  m_Enabled: 1
  m_EditorHideFlags: 0
  m_Script: {fileID: 11500000, guid: 09a9bae27cfca2e4db32b6efc3124f3d, type: 3}
  m_Name: ZonaCombateParam
  m_EditorClassIdentifier: 
  listeners: []
  isRaised: 0
  delayed: 0
  delayedParams:
    eventoOrigen: {fileID: 0}
    paramVector2: {x: 0, y: 0}
    paramFloat: 0
    paramInt: 0
    paramString: 
