%YAML 1.1
%TAG !u! tag:unity3d.com,2011:
--- !u!114 &11400000
MonoBehaviour:
  m_ObjectHideFlags: 0
  m_CorrespondingSourceObject: {fileID: 0}
  m_PrefabInstance: {fileID: 0}
  m_PrefabAsset: {fileID: 0}
  m_GameObject: {fileID: 0}
  m_Enabled: 1
  m_EditorHideFlags: 0
  m_Script: {fileID: 11500000, guid: 9e82812804271eb41a86f53a1534c225, type: 3}
  m_Name: MonsterList
  m_EditorClassIdentifier: 
  plantillaError: {fileID: 0}
  listaPlantillas:
  - {fileID: 11400000, guid: 37caa005c10fd4a4d94f8015e51514c4, type: 2}
  - {fileID: 11400000, guid: 386917a35a5d93f4ba814dc30a5b99a0, type: 2}
  - {fileID: 11400000, guid: e5db5fd903000c74b8c7db68aae2f18f, type: 2}
  - {fileID: 11400000, guid: 4ca25911d54b5ce429a6ae712b791eb8, type: 2}
  - {fileID: 11400000, guid: 7ceff4bb8b41caa4185bab36d8a3d83c, type: 2}
  - {fileID: 11400000, guid: 2103c2a08a491024a975bc8ee3e5af69, type: 2}
  - {fileID: 11400000, guid: fe5744494e3090f418e3ee6f32f1076d, type: 2}
  - {fileID: 11400000, guid: 01fe1da1c468f524a942a08ca4bd6430, type: 2}
