%YAML 1.1
%TAG !u! tag:unity3d.com,2011:
--- !u!114 &11400000
MonoBehaviour:
  m_ObjectHideFlags: 0
  m_CorrespondingSourceObject: {fileID: 0}
  m_PrefabInstance: {fileID: 0}
  m_PrefabAsset: {fileID: 0}
  m_GameObject: {fileID: 0}
  m_Enabled: 1
  m_EditorHideFlags: 0
  m_Script: {fileID: 11500000, guid: 73152cad23b2ba74b9f4ff31346b0609, type: 3}
  m_Name: PlantillaSave
  m_EditorClassIdentifier: 
  refGrupo:
  - id: Edrick
    nombre: Edrick
    hp: 250
    hpMax: 250
    mp: 40
    mpMax: 40
    energy: 40
    maxEnergy: 40
    atk: 5
    def: 5
    magicAtk: 5
    magicDef: 5
    agility: 5
    evasion: 5
    accuracy: 5
    luck: 5
    exp: 0
    skills: []
    lvl: 1
    clase: Mestizo
    tipoClase: 2
    expToNextLvl: 1000
    lvlPoints: 0
    lr:
      hp: 0
      mp: 0
      ep: 0
      atk: 0
      def: 0
      mAt: 0
      mDf: 0
      agl: 0
      eva: 0
      acc: 0
      lck: 0
  - id: Tarkoy
    nombre: Tarkoy
    hp: 200
    hpMax: 200
    mp: 0
    mpMax: 0
    energy: 30
    maxEnergy: 30
    atk: 15
    def: 15
    magicAtk: 15
    magicDef: 5
    agility: 20
    evasion: 15
    accuracy: 15
    luck: 15
    exp: 0
    skills:
    - {fileID: 11400000, guid: d61e4584285655242a0380bf79c25636, type: 2}
    - {fileID: 11400000, guid: 0c01e6367151ab14da323a6bfc170aab, type: 2}
    lvl: 1
    clase: Especialista
    tipoClase: 6
    expToNextLvl: 1000
    lvlPoints: 0
    lr:
      hp: 30
      mp: 0
      ep: 15
      atk: 3
      def: 3
      mAt: 3
      mDf: 1
      agl: 4
      eva: 3
      acc: 3
      lck: 2
  - id: Asha
    nombre: Asha
    hp: 150
    hpMax: 150
    mp: 0
    mpMax: 0
    energy: 20
    maxEnergy: 20
    atk: 10
    def: 5
    magicAtk: 5
    magicDef: 10
    agility: 25
    evasion: 25
    accuracy: 25
    luck: 15
    exp: 0
    skills: []
    lvl: 1
    clase: Arquera
    tipoClase: 0
    expToNextLvl: 1000
    lvlPoints: 0
    lr:
      hp: 20
      mp: 0
      ep: 10
      atk: 2
      def: 1
      mAt: 1
      mDf: 2
      agl: 5
      eva: 5
      acc: 5
      lck: 3
  - id: Axel
    nombre: Axel
    hp: 250
    hpMax: 250
    mp: 0
    mpMax: 0
    energy: 10
    maxEnergy: 10
    atk: 20
    def: 20
    magicAtk: 5
    magicDef: 5
    agility: 10
    evasion: 15
    accuracy: 20
    luck: 20
    exp: 0
    skills: []
    lvl: 1
    clase: Guerrero
    tipoClase: 1
    expToNextLvl: 1000
    lvlPoints: 0
    lr:
      hp: 40
      mp: 0
      ep: 5
      atk: 4
      def: 4
      mAt: 1
      mDf: 1
      agl: 2
      eva: 3
      acc: 4
      lck: 4
  - id: Fosfik
    nombre: Fosfik
    hp: 150
    hpMax: 150
    mp: 400
    mpMax: 400
    energy: 0
    maxEnergy: 0
    atk: 5
    def: 10
    magicAtk: 25
    magicDef: 25
    agility: 10
    evasion: 15
    accuracy: 10
    luck: 10
    exp: 0
    skills:
    - {fileID: 11400000, guid: 6d651577df7afb84f96749abd1971e68, type: 2}
    - {fileID: 11400000, guid: c3b060320eb44654f9ad8a7c4396a77d, type: 2}
    - {fileID: 11400000, guid: f67c3f7a4db51ed4e837abc731af2d0e, type: 2}
    - {fileID: 11400000, guid: 65ecf24a2be9efc45881df1edcf1af0b, type: 2}
    - {fileID: 11400000, guid: c28a08de34ee01345a3183f530a17814, type: 2}
    - {fileID: 11400000, guid: f1e0c5429175ab846a8a75994854e0e7, type: 2}
    - {fileID: 11400000, guid: 2ffef187bdcf6d94fb965980e40c53cc, type: 2}
    - {fileID: 11400000, guid: d4242c88eb065024eac553aea0c5d4a7, type: 2}
    - {fileID: 11400000, guid: 70002345e49ba6447a6865cabbfc39f9, type: 2}
    - {fileID: 11400000, guid: 41ee3d0daeb4a544fae3d0c379b78f58, type: 2}
    lvl: 1
    clase: Mestizo
    tipoClase: 2
    expToNextLvl: 1000
    lvlPoints: 0
    lr:
      hp: 0
      mp: 0
      ep: 0
      atk: 0
      def: 0
      mAt: 0
      mDf: 0
      agl: 0
      eva: 0
      acc: 0
      lck: 0
  - id: Kaiserk
    nombre: Kaiserk
    hp: 300
    hpMax: 300
    mp: 0
    mpMax: 0
    energy: 10
    maxEnergy: 10
    atk: 25
    def: 10
    magicAtk: 5
    magicDef: 5
    agility: 5
    evasion: 10
    accuracy: 25
    luck: 25
    exp: 0
    skills: []
    lvl: 1
    clase: Berserker
    tipoClase: 4
    expToNextLvl: 1000
    lvlPoints: 0
    lr:
      hp: 50
      mp: 0
      ep: 5
      atk: 5
      def: 2
      mAt: 1
      mDf: 1
      agl: 1
      eva: 2
      acc: 5
      lck: 5
  - id: Lauren
    nombre: Lauren
    hp: 100
    hpMax: 100
    mp: 40
    mpMax: 40
    energy: 0
    maxEnergy: 0
    atk: 5
    def: 5
    magicAtk: 25
    magicDef: 25
    agility: 15
    evasion: 20
    accuracy: 10
    luck: 10
    exp: 0
    skills:
    - {fileID: 11400000, guid: 8c5d9e827aee86a47a8302060a55a2ba, type: 2}
    - {fileID: 11400000, guid: 4856d3b64f17fcc4c9b2dea996449a8f, type: 2}
    lvl: 1
    clase: Maga blanca
    tipoClase: 3
    expToNextLvl: 1000
    lvlPoints: 0
    lr:
      hp: 10
      mp: 25
      ep: 0
      atk: 1
      def: 1
      mAt: 5
      mDf: 5
      agl: 3
      eva: 4
      acc: 2
      lck: 2
  - id: Tara
    nombre: Tara
    hp: 250
    hpMax: 250
    mp: 0
    mpMax: 0
    energy: 20
    maxEnergy: 20
    atk: 10
    def: 25
    magicAtk: 5
    magicDef: 15
    agility: 15
    evasion: 10
    accuracy: 10
    luck: 20
    exp: 0
    skills: []
    lvl: 1
    clase: Mestizo
    tipoClase: 2
    expToNextLvl: 1000
    lvlPoints: 0
    lr:
      hp: 40
      mp: 0
      ep: 10
      atk: 2
      def: 5
      mAt: 1
      mDf: 3
      agl: 3
      eva: 2
      acc: 2
      lck: 4
  refFormacion: 
  numEnVanguardia: 0
  refInventario: []
  dinero: 0
  saveId: 0
  newGame: 1
  playerPos: {x: 0, y: 0}
