%YAML 1.1
%TAG !u! tag:unity3d.com,2011:
--- !u!1001 &2540258748427856480
PrefabInstance:
  m_ObjectHideFlags: 0
  serializedVersion: 2
  m_Modification:
    m_TransformParent: {fileID: 0}
    m_Modifications:
    - target: {fileID: 8967130313173890887, guid: fad30a0b75371c641b772832efd6bf97,
        type: 3}
      propertyPath: m_Name
      value: SlotVanguardia Enemigo
      objectReference: {fileID: 0}
    - target: {fileID: 8967130313173890886, guid: fad30a0b75371c641b772832efd6bf97,
        type: 3}
      propertyPath: m_LocalPosition.x
      value: 0
      objectReference: {fileID: 0}
    - target: {fileID: 8967130313173890886, guid: fad30a0b75371c641b772832efd6bf97,
        type: 3}
      propertyPath: m_LocalPosition.y
      value: 0
      objectReference: {fileID: 0}
    - target: {fileID: 8967130313173890886, guid: fad30a0b75371c641b772832efd6bf97,
        type: 3}
      propertyPath: m_LocalPosition.z
      value: 0
      objectReference: {fileID: 0}
    - target: {fileID: 8967130313173890886, guid: fad30a0b75371c641b772832efd6bf97,
        type: 3}
      propertyPath: m_LocalRotation.x
      value: -0
      objectReference: {fileID: 0}
    - target: {fileID: 8967130313173890886, guid: fad30a0b75371c641b772832efd6bf97,
        type: 3}
      propertyPath: m_LocalRotation.y
      value: -0
      objectReference: {fileID: 0}
    - target: {fileID: 8967130313173890886, guid: fad30a0b75371c641b772832efd6bf97,
        type: 3}
      propertyPath: m_LocalRotation.z
      value: -0
      objectReference: {fileID: 0}
    - target: {fileID: 8967130313173890886, guid: fad30a0b75371c641b772832efd6bf97,
        type: 3}
      propertyPath: m_LocalRotation.w
      value: 1
      objectReference: {fileID: 0}
    - target: {fileID: 8967130313173890886, guid: fad30a0b75371c641b772832efd6bf97,
        type: 3}
      propertyPath: m_RootOrder
      value: 0
      objectReference: {fileID: 0}
    - target: {fileID: 8967130313173890886, guid: fad30a0b75371c641b772832efd6bf97,
        type: 3}
      propertyPath: m_LocalEulerAnglesHint.x
      value: 0
      objectReference: {fileID: 0}
    - target: {fileID: 8967130313173890886, guid: fad30a0b75371c641b772832efd6bf97,
        type: 3}
      propertyPath: m_LocalEulerAnglesHint.y
      value: 0
      objectReference: {fileID: 0}
    - target: {fileID: 8967130313173890886, guid: fad30a0b75371c641b772832efd6bf97,
        type: 3}
      propertyPath: m_LocalEulerAnglesHint.z
      value: 0
      objectReference: {fileID: 0}
    - target: {fileID: 4856429357022967006, guid: fad30a0b75371c641b772832efd6bf97,
        type: 3}
      propertyPath: m_LocalRotation.x
      value: 0
      objectReference: {fileID: 0}
    - target: {fileID: 4856429357022967006, guid: fad30a0b75371c641b772832efd6bf97,
        type: 3}
      propertyPath: m_LocalRotation.y
      value: 1
      objectReference: {fileID: 0}
    - target: {fileID: 4856429357022967006, guid: fad30a0b75371c641b772832efd6bf97,
        type: 3}
      propertyPath: m_LocalRotation.z
      value: 0
      objectReference: {fileID: 0}
    - target: {fileID: 4856429357022967006, guid: fad30a0b75371c641b772832efd6bf97,
        type: 3}
      propertyPath: m_LocalRotation.w
      value: 0
      objectReference: {fileID: 0}
    - target: {fileID: 4856429357022967006, guid: fad30a0b75371c641b772832efd6bf97,
        type: 3}
      propertyPath: m_LocalEulerAnglesHint.y
      value: 180
      objectReference: {fileID: 0}
    - target: {fileID: 148340581047802655, guid: fad30a0b75371c641b772832efd6bf97,
        type: 3}
      propertyPath: m_LocalRotation.x
      value: -0.085831694
      objectReference: {fileID: 0}
    - target: {fileID: 148340581047802655, guid: fad30a0b75371c641b772832efd6bf97,
        type: 3}
      propertyPath: m_LocalRotation.y
      value: -0.17298746
      objectReference: {fileID: 0}
    - target: {fileID: 148340581047802655, guid: fad30a0b75371c641b772832efd6bf97,
        type: 3}
      propertyPath: m_LocalRotation.z
      value: -0.015134449
      objectReference: {fileID: 0}
    - target: {fileID: 148340581047802655, guid: fad30a0b75371c641b772832efd6bf97,
        type: 3}
      propertyPath: m_LocalRotation.w
      value: 0.98106027
      objectReference: {fileID: 0}
    - target: {fileID: 8967130313130168558, guid: fad30a0b75371c641b772832efd6bf97,
        type: 3}
      propertyPath: m_Materials.Array.data[0]
      value: 
      objectReference: {fileID: 2100000, guid: 132cd54cbb01f3842a050744723195c1, type: 2}
    - target: {fileID: 89391673619488196, guid: fad30a0b75371c641b772832efd6bf97,
        type: 3}
      propertyPath: m_LocalPosition.z
      value: 0.6
      objectReference: {fileID: 0}
    - target: {fileID: 1505183505510039942, guid: fad30a0b75371c641b772832efd6bf97,
        type: 3}
      propertyPath: offset.y
      value: 0
      objectReference: {fileID: 0}
    m_RemovedComponents: []
  m_SourcePrefab: {fileID: 100100000, guid: fad30a0b75371c641b772832efd6bf97, type: 3}
