%YAML 1.1
%TAG !u! tag:unity3d.com,2011:
--- !u!114 &11400000
MonoBehaviour:
  m_ObjectHideFlags: 0
  m_CorrespondingSourceObject: {fileID: 0}
  m_PrefabInstance: {fileID: 0}
  m_PrefabAsset: {fileID: 0}
  m_GameObject: {fileID: 0}
  m_Enabled: 1
  m_EditorHideFlags: 0
  m_Script: {fileID: 11500000, guid: d2ccabfdb9a90f64bae31a4589d756f9, type: 3}
  m_Name: Exori Vis
  m_EditorClassIdentifier: 
  nombre: Exori Vis
  consumo: 20
  elements: 03000000
  type: 1
  area: 0
  targetType: 0
  multiplier: 2
